Modeling flight delays out of Madison, WIr emo::ji('small airplane')
…
# register those cores so that tidymodels can see them:
registerDoMC(cores = max(1, availableCores() - 1))

With a multi-core setup registered, tidymodels will now make use of all of the cores on my computer for expensive computations.

Data Import

We’ll make use of a dataset, msnflights22, containing data on all outbound flights from Madison, Wisconsin in 2022.

load("data/msnflights22.rda")

msnflights22

# A tibble: 10,754 × 14
   delayed airline     flight origin destination date        hour plane distance
   <fct>   <chr>       <fct>  <fct>  <fct>       <date>     <dbl> <fct>    <dbl>
 1 No      Endeavor A… 51     MSN    ATL         2022-01-01     5 N901…      707
 2 No      PSA Airlin… 59     MSN    CLT         2022-01-01     6 N570…      708
 3 No      Envoy Air   27     MSN    MIA         2022-01-01     6 N280…     1300
 4 No      American A… 3      MSN    PHX         2022-01-01     6 N662…     1396
 5 Yes     American A… 16     MSN    DFW         2022-01-01     7 N826…      821
 6 No      SkyWest Ai… 26     MSN    MSP         2022-01-01     7 N282…      228
 7 No      United Air… 1      MSN    EWR         2022-01-01     7 <NA>       799
 8 No      United Air… 6      MSN    DEN         2022-01-01     8 N830…      826
 9 No      Republic A… 29     MSN    ORD         2022-01-01     8 N654…      109
10 No      Endeavor A… 62     MSN    DTW         2022-01-01     9 N582…      311
# ℹ 10,744 more rows
# ℹ 5 more variables: duration <dbl>, wind_speed <dbl>, precip <dbl>,
#   visibility <dbl>, plane_year <int>
…
Collecting the information on performance from the resulting object:

# first look at metrics:
metrics_wf_set <- collect_metrics(wf_set_fit)

Taking a look at how these models did:

# extract the top roc_auc values
metrics_wf_set %>%
  filter(.metric == "roc_auc") %>%
  arrange(desc(mean)) %>%
  select(wflow_id, mean, n)

# A tibble: 34 × 3
   wflow_id            mean     n
   <chr>              <dbl> <int>
 1 normalize_bag_mars 0.615     8
 2 normalize_bag_mars 0.613     8
 3 normalize_bag_mars 0.606     8
 4 normalize_bag_mars 0.603     8
 5 normalize_bag_mars 0.598     8
 6 normalize_mlp      0.562     8
 7 basic_boost_tree   0.560     8
 8 basic_boost_tree   0.559     8
 9 basic_boost_tree   0.557     8
10 basic_boost_tree   0.556     8
# ℹ 24 more rows
…
