…
Why tidymodels?  Completeness

Built-in support for 99 machine learning models!

#> # A tibble: 99 × 2
#>    name       engine   
#>    <chr>      <chr>    
#>  1 boost_tree C5.0     
#>  2 boost_tree h2o      
#>  3 boost_tree h2o_gbm  
#>  4 boost_tree lightgbm 
#>  5 boost_tree mboost   
#>  6 boost_tree spark    
#>  7 boost_tree xgboost  
#>  8 null_model parsnip  
#>  9 svm_linear LiblineaR
#> 10 svm_linear kernlab  
#> # ℹ 89 more rows

Why tidymodels?  Completeness

Built-in support for 102 data pre-processing techniques!

#> # A tibble: 102 × 1
#>    name               
#>    <chr>              
#>  1 step_rename_at     
#>  2 step_scale         
#>  3 step_kpca          
#>  4 step_percentile    
#>  5 step_depth         
#>  6 step_poly_bernstein
#>  7 step_impute_linear 
#>  8 step_novel         
#>  9 step_nnmf_sparse   
#> 10 step_slice         
#> # ℹ 92 more rows
…
Workbench: scalable, on-demand computational resources

Connect: share work with collaborators and practitioners

Applied example🛩

Who all is flying home for the holidays?

😬🎅😬🎅😬☃️😬🎅😬☃️😬☃️😬

Flights out of Madison, WI

anyflights("MSN", 2022)

#> # A tibble: 10,754 × 14
#>   delayed airline     flight origin destination date        hour plane
#>   <fct>   <chr>       <fct>  <fct>  <fct>       <date>     <dbl> <fct>
#> 1 No      Endeavor A… 51     MSN    ATL         2022-01-01     5 N901…
#> 2 No      PSA Airlin… 59     MSN    CLT         2022-01-01     6 N570…
#> 3 No      Envoy Air   27     MSN    MIA         2022-01-01     6 N280…
#> 4 No      American A… 3      MSN    PHX         2022-01-01     6 N662…
#> 5 Yes     American A… 16     MSN    DFW         2022-01-01     7 N826…
#> 6 No      SkyWest Ai… 26     MSN    MSP         2022-01-01     7 N282…
#> # ℹ 10,748 more rows
#> # ℹ 6 more variables: distance <dbl>, duration <dbl>,
#> #   wind_speed <dbl>, precip <dbl>, visibility <dbl>,
#> #   plane_year <int>
…
